…
```r
tabelle61111_0003neu %>% 
  tidyr::pivot_wider(id_cols = c("2_variable_label", "2_variable_attribute_label"), 
                     names_from = "time", 
                     values_from = "value") %>% 
  dplyr::arrange(`2_variable_label`) %>% 
  tibble::as_tibble()
```

```
## # A tibble: 441 × 7
##    `2_variable_label`                2_variable_attribute…¹ `2019` `2020` `2021` `2022` `2023`
##    <chr>                             <chr>                   <dbl>  <dbl>  <dbl>  <dbl>  <dbl>
##  1 Verwendungszwecke des Individual… Nahrungsmittel und al…   97.9    100  103.   116    130. 
##  2 Verwendungszwecke des Individual… Alkoholische Getränke…   98.1    100  104.   108.   117. 
##  3 Verwendungszwecke des Individual… Bekleidung und Schuhe   102.     100  102.   102.   106. 
##  4 Verwendungszwecke des Individual… Wohnung, Wasser, Stro…   99      100  102.   109.   114. 
##  5 Verwendungszwecke des Individual… Möbel, Leuchten, Gerä…   99.9    100  103.   110.   118. 
##  6 Verwendungszwecke des Individual… Gesundheit               98.7    100  100.   102.   105. 
##  7 Verwendungszwecke des Individual… Verkehr                 102.     100  108.   120    124. 
##  8 Verwendungszwecke des Individual… Post und Telekommunik…  102.     100   99.4   99.4   99.8
##  9 Verwendungszwecke des Individual… Freizeit, Unterhaltun…  100.     100  103.   108.   114  
## 10 Verwendungszwecke des Individual… Bildungswesen           100.     100  102.   105.   109. 
## # ℹ 431 more rows
## # ℹ abbreviated name: ¹​`2_variable_attribute_label`
```
…
